user_name,user_surname,sex,password,email,university_name
John,Doe,male,password1,john.doe@example.com,"Harvard University"
Jane,Smith,female,password2,jane.smith@example.com,"Harvard University"
Michael,Johnson,male,password3,michael.johnson@example.com,"Stanford University"
Emily,Davis,female,password4,emily.davis@example.com,"Stanford University"
Christopher,Martinez,male,password5,christopher.martinez@example.com,"University of Oxford"
Ashley,Garcia,female,password6,ashley.garcia@example.com,"University of Oxford"
Matthew,Rodriguez,male,password7,matthew.rodriguez@example.com,"University of Cambridge"
Amanda,Martinez,female,password8,amanda.martinez@example.com,"University of Cambridge"
Joshua,Hernandez,male,password9,joshua.hernandez@example.com,"Massachusetts Institute of Technology"
Sarah,Lopez,female,password10,sarah.lopez@example.com,"Massachusetts Institute of Technology"
Andrew,Gonzales,male,password11,andrew.gonzales@example.com,"California Institute of Technology"
Megan,Wilson,female,password12,megan.wilson@example.com,"California Institute of Technology"
Justin,Anderson,male,password13,justin.anderson@example.com,"Princeton University"
Olivia,Thomas,female,password14,olivia.thomas@example.com,"Princeton University"
Brandon,Moore,male,password15,brandon.moore@example.com,"Yale University"
Jessica,Taylor,female,password16,jessica.taylor@example.com,"Yale University"
Tyler,Jackson,male,password17,tyler.jackson@example.com,"Columbia University"
Hannah,White,female,password18,hannah.white@example.com,"Columbia University"
James,Harris,male,password19,james.harris@example.com,"University of Chicago"
Elizabeth,Martin,female,password20,elizabeth.martin@example.com,"University of Chicago"
Elizabeth,Thompson,female,password20,elizabeth.thompson@example.com,"Australian National University"
Daniel,Lee,male,password21,daniel.lee@example.com,"Harvard University"
Laura,Walker,female,password22,laura.walker@example.com,"Stanford University"
David,Hall,male,password23,david.hall@example.com,"University of Oxford"
Emma,Young,female,password24,emma.young@example.com,"University of Cambridge"
Robert,Allen,male,password25,robert.allen@example.com,"Massachusetts Institute of Technology"
Sophia,King,female,password26,sophia.king@example.com,"California Institute of Technology"
Ryan,Wright,male,password27,ryan.wright@example.com,"Princeton University"
Isabella,Scott,female,password28,isabella.scott@example.com,"Yale University"
Nathan,Torres,male,password29,nathan.torres@example.com,"Columbia University"
Mia,Hill,female,password30,mia.hill@example.com,"University of Chicago"
Ethan,Green,male,password31,ethan.green@example.com,"University of Pennsylvania"
Ava,Adams,female,password32,ava.adams@example.com,"University of California, Berkeley"
Alexander,Baker,male,password33,alexander.baker@example.com,"University of Toronto"
Abigail,Nelson,female,password34,abigail.nelson@example.com,"Imperial College London"
William,Carter,male,password35,william.carter@example.com,"ETH Zurich"
Samantha,Mitchell,female,password36,samantha.mitchell@example.com,"University of Tokyo"
Joseph,Perez,male,password37,joseph.perez@example.com,"Peking University"
Emily,Roberts,female,password38,emily.roberts@example.com,"Tsinghua University"
Anthony,Turner,male,password39,anthony.turner@example.com,"National University of Singapore"
Linda,Phillips,female,password40,linda.phillips@example.com,"Australian National University"
Thomas,Campbell,male,password41,thomas.campbell@example.com,"Harvard University"
Jessica,Parker,female,password42,jessica.parker@example.com,"Stanford University"
Charles,Evans,male,password43,charles.evans@example.com,"University of Oxford"
Patricia,Edwards,female,password44,patricia.edwards@example.com,"University of Cambridge"
Matthew,Collins,male,password45,matthew.collins@example.com,"Massachusetts Institute of Technology"
Elizabeth,Stewart,female,password46,elizabeth.stewart@example.com,"California Institute of Technology"
Christopher,Sanchez,male,password47,christopher.sanchez@example.com,"Princeton University"
Daniel,Morris,male,password48,daniel.morris@example.com,"Yale University"
Susan,Rogers,female,password49,susan.rogers@example.com,"Columbia University"
James,Reed,male,password50,james.reed@example.com,"University of Chicago"
Emily,Cook,female,password51,emily.cook@example.com,"University of Pennsylvania"
John,Morgan,male,password52,john.morgan@example.com,"University of California, Berkeley"
Megan,Bell,female,password53,megan.bell@example.com,"University of Toronto"
Michael,Murphy,male,password54,michael.murphy@example.com,"Imperial College London"
Sarah,Bailey,female,password55,sarah.bailey@example.com,"ETH Zurich"
David,Rivera,male,password56,david.rivera@example.com,"University of Tokyo"
Ashley,Cooper,female,password57,ashley.cooper@example.com,"Peking University"
Joshua,Richardson,male,password58,joshua.richardson@example.com,"Tsinghua University"
Amanda,Cox,female,password59,amanda.cox@example.com,"National University of Singapore"
Andrew,Howard,male,password60,andrew.howard@example.com,"Australian National University"
Jessica,Ward,female,password61,jessica.ward@example.com,"Harvard University"
Christopher,Brooks,male,password62,christopher.brooks@example.com,"Stanford University"
Andrew,Lee,male,password63,andrew.lee@example.com,"University of Oxford"
Hannah,Butler,female,password64,hannah.butler@example.com,"University of Cambridge"
Matthew,Barnes,male,password65,matthew.barnes@example.com,"Massachusetts Institute of Technology"
Emily,Foster,female,password66,emily.foster@example.com,"California Institute of Technology"
Joshua,Gonzalez,male,password67,joshua.gonzalez@example.com,"Princeton University"
Sarah,Henderson,female,password68,sarah.henderson@example.com,"Yale University"
Michael,Ross,male,password69,michael.ross@example.com,"Columbia University"
Andrew,Coleman,male,password70,andrew.coleman@example.com,"University of Chicago"
Megan,Jenkins,female,password71,megan.jenkins@example.com,"University of Pennsylvania"
John,Perry,male,password72,john.perry@example.com,"University of California, Berkeley"
Jessica,Long,female,password73,jessica.long@example.com,"University of Toronto"
Christopher,Patterson,male,password74,christopher.patterson@example.com,"Imperial College London"
Ashley,Hughes,female,password75,ashley.hughes@example.com,"ETH Zurich"
Andrew,Flores,male,password76,andrew.flores@example.com,"University of Tokyo"
Hannah,Washington,female,password77,hannah.washington@example.com,"Peking University"
Matthew,Butler,male,password78,matthew.butler@example.com,"Tsinghua University"
Olivia,Simmons,female,password79,olivia.simmons@example.com,"National University of Singapore"
Tyler,Foster,male,password80,tyler.foster@example.com,"Australian National University"
Christopher,Ward,male,password81,christopher.ward@example.com,"Harvard University"
Emily,Brooks,female,password82,emily.brooks@example.com,"Stanford University"
Andrew,Gray,male,password83,andrew.gray@example.com,"University of Oxford"
Jessica,Bryant,female,password84,jessica.bryant@example.com,"University of Cambridge"
Michael,Alexander,male,password85,michael.alexander@example.com,"Massachusetts Institute of Technology"
Sarah,Myers,female,password86,sarah.myers@example.com,"California Institute of Technology"
Joshua,Hayes,male,password87,joshua.hayes@example.com,"Princeton University"
Matthew,Diaz,male,password88,matthew.diaz@example.com,"Yale University"
Jessica,Reynolds,female,password89,jessica.reynolds@example.com,"Columbia University"
Andrew,Griffin,male,password90,andrew.griffin@example.com,"University of Chicago"
Emily,Hamilton,female,password91,emily.hamilton@example.com,"University of Pennsylvania"
John,Graham,male,password92,john.graham@example.com,"University of California, Berkeley"
Ashley,Sullivan,female,password93,ashley.sullivan@example.com,"University of Toronto"
Christopher,Wallace,male,password94,christopher.wallace@example.com,"Imperial College London"
Matthew,Wood,male,password95,matthew.wood@example.com,"ETH Zurich"
Sarah,Stone,female,password96,sarah.stone@example.com,"University of Tokyo"
Michael,Marshall,male,password97,michael.marshall@example.com,"Peking University"
Jessica,Johnston,female,password98,jessica.johnston@example.com,"Tsinghua University"
Andrew,Watkins,male,password99,andrew.watkins@example.com,"National University of Singapore"
John,Simpson,male,password100,john.simpson@example.com,"Australian National University"
